{
  "images" : [
    {
      "idiom" : "iphone",
      "filename" : "img_intro.png",
      "scale" : "1x"
    },
    {
      "idiom" : "iphone",
      "filename" : "img_intro@2x.png",
      "scale" : "2x"
    },
    {
      "idiom" : "iphone",
      "filename" : "img_intro@3x.png",
      "scale" : "3x"
    },
    {
      "idiom" : "ipad",
      "filename" : "imgIntro.png",
      "scale" : "1x"
    },
    {
      "idiom" : "ipad",
      "filename" : "imgIntro-1.png",
      "scale" : "2x"
    }
  ],
  "info" : {
    "version" : 1,
    "author" : "xcode"
  }
}